# compile verilog/system verilog design source files
verilog xil_defaultlib  \
"../../../../comporg_project_1.srcs/sources_1/imports/csci202_mux/mux1bit2to1.v" \

# compile glbl module
verilog xil_defaultlib "glbl.v"

# Do not sort compile order
nosort
