# compile verilog/system verilog design source files
verilog xil_defaultlib  \
"../../../../comporg_project_1.srcs/sources_1/new/cla.v" \
"../../../../comporg_project_1.srcs/sources_1/new/cla_block.v" \
"../../../../comporg_project_1.srcs/sim_1/new/tb_CLA.v" \

# compile glbl module
verilog xil_defaultlib "glbl.v"

# Do not sort compile order
nosort
